<?xml version="1.0" encoding="UTF-8" standalone="no"?>
<svg
   xmlns:dc="http://purl.org/dc/elements/1.1/"
   xmlns:cc="http://creativecommons.org/ns#"
   xmlns:rdf="http://www.w3.org/1999/02/22-rdf-syntax-ns#"
   xmlns:svg="http://www.w3.org/2000/svg"
   xmlns="http://www.w3.org/2000/svg"
   xmlns:sodipodi="http://sodipodi.sourceforge.net/DTD/sodipodi-0.dtd"
   xmlns:inkscape="http://www.inkscape.org/namespaces/inkscape"
   id="svg2"
   viewBox="0 0 160 160"
   version="1.1"
   inkscape:version="0.91 r13725"
   sodipodi:docname="timeEdge.svg">
  <sodipodi:namedview
     pagecolor="#ffffff"
     bordercolor="#666666"
     borderopacity="1"
     objecttolerance="10"
     gridtolerance="10"
     guidetolerance="10"
     inkscape:pageopacity="1"
     inkscape:pageshadow="2"
     inkscape:window-width="1920"
     inkscape:window-height="1057"
     id="namedview11"
     showgrid="false"
     inkscape:zoom="5.9"
     inkscape:cx="90.294513"
     inkscape:cy="60.254333"
     inkscape:window-x="-8"
     inkscape:window-y="-8"
     inkscape:window-maximized="1"
     inkscape:current-layer="svg2" />
  <metadata
     id="metadata23">
    <rdf:RDF>
      <cc:Work
         rdf:about="">
        <dc:format>image/svg+xml</dc:format>
        <dc:type
           rdf:resource="http://purl.org/dc/dcmitype/StillImage" />
        <dc:title></dc:title>
      </cc:Work>
    </rdf:RDF>
  </metadata>
  <defs
     id="defs4">
    <linearGradient
       y2="4.31663E-06"
       y1="1"
       x2="0.500004"
       x1="0.500004"
       id="def0">
      <stop
         id="stop7"
         stop-color="#B8DAFF"
         offset="0" />
      <stop
         id="stop9"
         stop-color="#B8DAFF"
         offset="0.00561806" />
      <stop
         id="stop11"
         stop-color="#F6F9FF"
         offset="1" />
    </linearGradient>
  </defs>
  <path
     transform="matrix(0.70710678,-0.70710678,0.70710678,0.70710678,0,0)"
     style="fill:none;fill-opacity:1;stroke:#000000;stroke-width:5;stroke-linecap:round;stroke-linejoin:round;stroke-miterlimit:4;stroke-dasharray:none;stroke-opacity:1"
     d="m 113.14269,118.01824 -220.62855,0 m 0,-9.76232 220.62855,0"
     id="rect4139"
     inkscape:connector-curvature="0"
     sodipodi:nodetypes="cccc" />
  <rect
     y="61.069817"
     x="61.069817"
     height="37.860367"
     width="37.860367"
     id="rect4170"
     style="fill:#ffffff;fill-opacity:1;stroke:#000000;stroke-width:2.14;stroke-linecap:round;stroke-linejoin:round;stroke-miterlimit:4;stroke-dasharray:none;stroke-opacity:1" />
</svg>
